Machine learning
…
Diabetes data set

The diabetes dataset presents three different groups of diabetes patients and five clinical variables measured on them. We will try to use those measured variables to predict the group of a patient.

# load data
diabetes = read_csv(
  url("http://web.stanford.edu/class/bios221/data/diabetes.csv"), 
  col_names = TRUE
)
# if download fails with timeout error, try increasing it
# options(timeout = 1000)
diabetes

# A tibble: 144 × 7
      id relwt glufast glutest steady insulin group
   <dbl> <dbl>   <dbl>   <dbl>  <dbl>   <dbl> <dbl>
 1     1  0.81      80     356    124      55     3
 2     3  0.94     105     319    143     105     3
 3     5  1         90     323    240     143     3
 4     7  0.91     100     350    221     119     3
 5     9  0.99      97     379    142      98     3
 6    11  0.9       91     353    221      53     3
 7    13  0.96      78     290    136     142     3
 8    15  0.74      86     312    208      68     3
 9    17  1.1       90     364    152      76     3
10    19  0.83      85     296    116      60     3
# ℹ 134 more rows
…
